
$B@>1;=`Hw(Bn0008
$BFbMF(B: $B3F<o3P=q(B
$BF|IU(B: 2001$BG/(B2$B7n(B23$BF|(B
$BDs=P(B: $B<cMU(B
$BJ,N`(B: FYI
$B8x3+(B: $B@>1;7W2h@5<02TF0$^$GIt30Hk!#(B
$BGQ;_(B: n0004

** $B@>1;7W2h4IM}1?1DCD(B

;; $B%m%1%C%HCD$_$?$$$J(B(?)$BL>A0$@(B:-)

  $BBeI=(B                    
  $B2q7W(B                    $B1'DEH~(B
  $B8x<0J8=q=q5-41(B          $B<cMU(B
  $B%5!<%P!<C4Ev(B
    Web (HTTP, FTP)       
    $B%a%$%k(B (SMTP, POP3)   $B<cMU(B
    $B%K%e!<%9(B              
    $BL>A0(B                  $BLo7u(B
  $BJ?CD0w(B                  

;; $B6uMs2?$H$+$7$m(B($BL?Na7A(B)$B!#(B

** $B@>1;7W2h:n6H%a%b(B

;; $BM%@h=g(B
;; $BC4Ev<T$,7h$^$C$F$$$k>l9g!"KvHx3g8LFb!#(B

$B!&(BKondara$BMQ;q6bD4C#(B ($B1'DEH~(B)
$B!&(BKondara install, $B%5!<%P!<@_Dj(B
$B!&(BInternet link $B3NJ](B
$B!&4pK\E*5,Dj$N3NDj(B
$B!&(BWeb server $BMQ%H%C%WJG(B
$B!&L>A0%5!<%P!<$N1?MQ%F%9%H(B
$B!&%I%a%$%sL>?=@A!#(B
$B!&L>A0%5!<%P!<@_Dj!#(B
$B!&4IM}CD(BML$B$N0\9T(B ($B<cMU(B)
$B!&(Bhima, himajin, robamimi, chuubu $B$N0\9T5Z$S$=$N(Bannounce ($B<cMU(B)
$B!&(Bfuroiran $B0\F0!#$=$N8e$N07$$$K$D$$$F=aMM$H6(5D!#(B ($B<cMU(B)
$B!&(Bcool $B0\F0!#(B ($B<cMU(B)
$B!&(Bhimajin $B$K@>1;7W2h$K$D$$$F(B announce

** $B@>1;7W2hM=Dj(B

;; $B$*$$$*$$!"(B2$B7nCf$K$3$l$@$1$OL5M}$J$s$8$c(B?

2$B7n(B24$BF|:"(B $BBh(B1$B2s2q9g!#(B
2$B7n(B       $B%=%U%H%&%'%"$K$D$$$F$NBG$A9g$o$;(B($B%M%C%H%o!<%/2q5D(B:-)$B!#(B
2$B7n(B       $B=`Hw:G=*BG$A9g$o$;!#(B
2$B7n(B21$BF|:"(B $B1'DEH~Bp$KB?J,%N!<%H7?5!G[Aw(B
3$B7n(B       $B%5!<%P!<$N%=%U%H%&%'%"=`Hw!#(B
3$B7n(B15$BF|(B   $B1'DEH~B46H<0(B
3$B7n(B       $B%5!<%P!<4D6-@0Hw!#2>1?MQ3+;O!#(B
8$B7n:"(B     $B%I%a%$%sL>?=@A(B, $BEPO?!#(BDNS$B@0Hw!#(B
8$B7n:"(B     $BK\1?MQ3+;O!#(B
