$B@>1;7W2h(B
$B;q6b1?MQ5,Dj(B($B0F(B)
							2001-02-06

$B!&0J2<!"@>1;7W2h=`Hw=8CD(B <umekichi-ncc-1701-d@egroups.co.jp> $B$r4IM}=8(B
  $BCD$H5-$9!#(B

$B!&2q7WC4Ev<T$O!"1'DEH~(B <utubi@sr.incl.ne.jp> $B$H$9$k!#(B
$B!&2q7WG/EY$O(B4$B7n(B1$BF|$+$iMbG/(B3$B7n(B31$BF|$H$9$k!#C"$7!"(B2001$BG/EY$K="$$$F$O!"$=(B
  $B$N3+;O;~4|$rFC$KDj$a$J$$!#(B

$B!&2q7WC4Ev<T$O!"2q7WG/EY$N3+;O$+$i(B1$B%v7n0JFb$K!"A0G/EY$N2q7WJs9p$r4IM}(B
  $B=8CD$KDs=P$7$J$1$l$P$J$i$J$$!#(B
$B!&2q7WC4Ev<T$O!"(B4$B%v7n$K(B1$B2s0J>e!"@>1;7W2h$N;q;:>u67$r4IM}=8CD$KJs9p$7$J(B
  $B$1$l$P$J$i$J$$!#(B

$B!&MxMQ<T$+$i$N4IM}Hq$ND'<}$d!"4sIU6b$N<uNN$O4IM}=8CDCD0w$,9T$&!#(B
$B!&4IM}=8CDCD0w$O@>1;7W2h$N:b;:$rJ]4I$7$F$bNI$$$,!"$=$N=PF~$j$N:]$K$O2q(B
  $B7WC4Ev<T$KJs9p$7$J$1$l$P$J$i$J$$!#FC$K!";Y=P$K$*$$$FNN<}=q$NN`$,$"$k(B
  $B>l9g$K$O!"$=$l$rDs=P$9$k$3$H$,K>$^$7$$!#(B

[$B$3$3$K%m%4$,F~$j$^$9(B($B>P(B)]
